Functional analysis of genes and metabolites
…
hypeR

gprofiler2

fgsea (used internally by ClusterProfiler)

Some examples with clusterProfiler

We need for that a dataset

DE_result <- read_tsv("../TP/Gene_DE_DIVA.tsv")

DE_result

# A tibble: 12,137 × 10
   rowname        logFC logCPM      LR PValue p.adj FILTER.FC FILTER.P gene_name
   <chr>          <dbl>  <dbl>   <dbl>  <dbl> <dbl>     <dbl>    <dbl> <chr>    
 1 ENSG000000… -0.00293  4.51  4.12e-4  0.984 1.00          0        0 TSPAN6   
 2 ENSG000000…  0.0458   5.41  1.53e-1  0.696 1.00          0        0 DPM1     
 3 ENSG000000… -0.0242   2.75  1.73e-2  0.895 1.00          0        0 SCYL3    
 4 ENSG000000… -0.0455   4.95  1.13e-1  0.737 1.00          0        0 C1orf112 
 5 ENSG000000…  0.353    0.953 7.96e-1  0.372 0.997         0        0 CFH      
 6 ENSG000000… -0.0296   5.42  5.76e-2  0.810 1.00          0        0 FUCA2    
 7 ENSG000000… -0.0252   5.32  4.29e-2  0.836 1.00          0        0 GCLC     
 8 ENSG000000…  0.0502   5.84  1.78e-1  0.673 1.00          0        0 NFYA     
 9 ENSG000000… -0.253    2.76  1.92e+0  0.166 0.803         0        0 STPG1    
10 ENSG000000… -0.177    4.98  1.85e+0  0.173 0.811         0        0 NIPAL3   
# ℹ 12,127 more rows
# ℹ 1 more variable: gene_biotype <chr>
…
Gene classification based on GO distribution at a specific level

ggo <- groupGO(gene     = de_genes$rowname,
               OrgDb        = org.db,
               ont          = "BP",
               keyType = "ENSEMBL",
               level    = 3,
               readable = TRUE)
ggo

GO BP Profiles at level 3 of 248 Homo sapiens genes 

ggo %>% as_tibble()

# A tibble: 523 × 5
   ID         Description                                 Count GeneRatio geneID
   <chr>      <chr>                                       <int> <chr>     <chr> 
 1 GO:0019953 sexual reproduction                            10 10/248    "BIRC…
 2 GO:0019954 asexual reproduction                            0 0/248     ""    
 3 GO:0022414 reproductive process                           24 24/248    "BIRC…
 4 GO:0032504 multicellular organism reproduction            12 12/248    "BIRC…
 5 GO:0032505 reproduction of a single-celled organism        0 0/248     ""    
 6 GO:0075325 spore dispersal                                 0 0/248     ""    
 7 GO:1990277 parasexual reproduction with cellular fusi…     0 0/248     ""    
 8 GO:0001776 leukocyte homeostasis                           5 5/248     "FAS/…
 9 GO:0002200 somatic diversification of immune receptors     2 2/248     "IL27…
10 GO:0002252 immune effector process                         9 9/248     "ST3G…
# ℹ 513 more rows
…
The clusterProfiler package implements enrichGO() for gene ontology over-representation test.

ego <- enrichGO(gene          = de_genes$rowname,
                universe      = DE_result$rowname,
                OrgDb         = org.db,
                keyType = "ENSEMBL",
                ont           = "BP",
                pAdjustMethod = "BH",
                pvalueCutoff  = 0.01,
                qvalueCutoff  = 0.05,
                readable      = TRUE)

ego %>% as_tibble()

# A tibble: 155 × 9
   ID       Description GeneRatio BgRatio   pvalue p.adjust  qvalue geneID Count
   <chr>    <chr>       <chr>     <chr>      <dbl>    <dbl>   <dbl> <chr>  <int>
 1 GO:0001… angiogenes… 27/203    311/10… 1.16e-10  3.59e-7 2.63e-7 NRP1/…    27
 2 GO:0030… regulation… 32/203    448/10… 3.04e-10  3.73e-7 2.73e-7 KITLG…    32
 3 GO:0001… vasculatur… 32/203    451/10… 3.61e-10  3.73e-7 2.73e-7 NRP1/…    32
 4 GO:0030… positive r… 27/203    333/10… 5.41e-10  4.20e-7 3.08e-7 KITLG…    27
 5 GO:2000… positive r… 27/203    342/10… 9.79e-10  6.07e-7 4.45e-7 KITLG…    27
 6 GO:0040… positive r… 27/203    347/10… 1.35e- 9  6.98e-7 5.11e-7 KITLG…    27
 7 GO:0001… blood vess… 30/203    429/10… 1.94e- 9  8.58e-7 6.29e-7 NRP1/…    30
 8 GO:0030… regulation… 13/203    79/100… 4.91e- 9  1.91e-6 1.40e-6 WWTR1…    13
 9 GO:0048… blood vess… 27/203    374/10… 6.89e- 9  2.37e-6 1.74e-6 NRP1/…    27
10 GO:0043… regulation… 27/203    392/10… 1.87e- 8  5.81e-6 4.26e-6 FAS/K…    27
# ℹ 145 more rows
…
And gseGO() for Gene Set Enrichment Analysis

ego <- gseGO(geneList     = geneList,
             OrgDb        = org.Hs.eg.db,
             ont          = "BP",
             keyType = "ENSEMBL",
             minGSSize    = 100,
             maxGSSize    = 500,
             pvalueCutoff = 0.05,
             verbose      = FALSE)

ego %>% as_tibble()

# A tibble: 351 × 11
   ID        Description setSize enrichmentScore   NES   pvalue p.adjust  qvalue
   <chr>     <chr>         <int>           <dbl> <dbl>    <dbl>    <dbl>   <dbl>
 1 GO:00988… nuclear ch…     284          -0.495 -2.27 1   e-10  1.33e-8 7.19e-9
 2 GO:00070… chromosome…     369          -0.467 -2.23 1   e-10  1.33e-8 7.19e-9
 3 GO:00000… mitotic si…     189          -0.512 -2.23 1   e-10  1.33e-8 7.19e-9
 4 GO:00008… sister chr…     231          -0.490 -2.19 1   e-10  1.33e-8 7.19e-9
 5 GO:00002… nuclear di…     341          -0.446 -2.10 1   e-10  1.33e-8 7.19e-9
 6 GO:01400… mitotic nu…     252          -0.452 -2.06 1   e-10  1.33e-8 7.19e-9
 7 GO:00482… organelle …     378          -0.422 -1.99 1   e-10  1.33e-8 7.19e-9
 8 GO:00019… vasculatur…     451           0.487  1.76 4.29e-10  4.44e-8 2.40e-8
 9 GO:00002… microtubul…     476          -0.354 -1.69 4.07e-10  4.44e-8 2.40e-8
10 GO:00015… blood vess…     429           0.486  1.75 1.96e- 9  1.83e-7 9.87e-8
# ℹ 341 more rows
# ℹ 3 more variables: rank <dbl>, leading_edge <chr>, core_enrichment <chr>
…
Need conversion first

res1 <- select(org.db, keys=de_genes$rowname,columns=c("ENSEMBL","ENTREZID"),keytype = "ENSEMBL")
res2 <- bitr(de_genes$rowname, fromType="ENSEMBL", toType=c("ENTREZID"), OrgDb=org.db)

And then use enrichKEGG()

kk <- enrichKEGG(gene         = res2$ENTREZID,
                 organism     = 'hsa',
                 pvalueCutoff = 0.05)

kk %>% as_tibble()

# A tibble: 23 × 9
   ID       Description  GeneRatio BgRatio  pvalue p.adjust  qvalue geneID Count
   <chr>    <chr>        <chr>     <chr>     <dbl>    <dbl>   <dbl> <chr>  <int>
 1 hsa04115 p53 signali… 9/119     73/8444 7.37e-7  6.63e-5 5.05e-5 355/2…     9
 2 hsa05215 Prostate ca… 10/119    97/8444 9.47e-7  6.63e-5 5.05e-5 4318/…    10
 3 hsa04010 MAPK signal… 17/119    302/84… 9.80e-7  6.63e-5 5.05e-5 355/4…    17
 4 hsa05219 Bladder can… 7/119     41/8444 1.40e-6  7.10e-5 5.41e-5 4318/…     7
 5 hsa05202 Transcripti… 12/119    193/84… 1.62e-5  6.56e-4 5.00e-4 330/7…    12
 6 hsa04151 PI3K-Akt si… 15/119    354/84… 1.26e-4  3.57e-3 2.72e-3 4254/…    15
 7 hsa04510 Focal adhes… 11/119    203/84… 1.29e-4  3.57e-3 2.72e-3 330/5…    11
 8 hsa05205 Proteoglyca… 11/119    205/84… 1.41e-4  3.57e-3 2.72e-3 355/6…    11
 9 hsa04668 TNF signali… 8/119     114/84… 1.95e-4  4.39e-3 3.35e-3 330/3…     8
10 hsa05218 Melanoma     6/119     72/8444 5.05e-4  9.92e-3 7.56e-3 5159/…     6
# ℹ 13 more rows
…
Some examples with rbioapi

results_all <- rba_enrichr(gene_list = genes)

--Step 1/3:
Retrieving List of available libraries and statistics from Enrichr human.
--Step 2/3:
Uploading 248 gene symbols to Enrichr human.
--Step 3/3:
Performing enrichment analysis on gene-list 62468329 using multiple Enrichr human libraries.
Note: You have selected '211' Enrichr human libraries. Note that for each library, a separate call should be sent to Enrichr server. Thus, this could take a while depending on the number of selected libraries and your network connection.

results_all[["GO_Biological_Process_2021"]] %>% as_tibble()

# A tibble: 1,951 × 9
   Term       Overlap  P.value Adjusted.P.value Old.P.value Old.Adjusted.P.value
   <chr>      <chr>      <dbl>            <dbl>       <int>                <int>
 1 positive … 26/474  2.51e-10      0.000000489           0                    0
 2 positive … 29/625  1.09e- 9      0.00000107            0                    0
 3 regulatio… 30/764  2.55e- 8      0.0000166             0                    0
 4 cell chem… 9/69    1.78e- 7      0.0000786             0                    0
 5 regulatio… 20/408  2.01e- 7      0.0000786             0                    0
 6 positive … 15/269  1.45e- 6      0.000471              0                    0
 7 positive … 6/37    5.76e- 6      0.00161               0                    0
 8 positive … 12/221  2.16e- 5      0.00526               0                    0
 9 positive … 8/102   4.01e- 5      0.00870               0                    0
10 regulatio… 5/34    5.84e- 5      0.0114                0                    0
# ℹ 1,941 more rows
# ℹ 3 more variables: Odds.Ratio <dbl>, Combined.Score <dbl>, Genes <chr>
Some examples with rbioapi

Using STRING

STRING let you perform two types of enrichments.

We need to map proteins first

proteins <- de_genes %>% dplyr::filter(gene_biotype=="protein_coding") %>% pull(gene_name)
proteins_mapped <- rba_string_map_ids(ids = proteins,
                                      species = 9606)

proteins_mapped %>% as_tibble()

# A tibble: 216 × 7
   queryIndex queryItem stringId  ncbiTaxonId taxonName preferredName annotation
        <int> <chr>     <chr>           <int> <chr>     <chr>         <chr>     
 1          0 KDM7A     9606.ENS…        9606 Homo sap… KDM7A         "Lysine-s…
 2          1 ST3GAL1   9606.ENS…        9606 Homo sap… ST3GAL1       "CMP-N-ac…
 3          2 IFFO1     9606.ENS…        9606 Homo sap… IFFO1         "Intermed…
 4          3 WWTR1     9606.ENS…        9606 Homo sap… WWTR1         "WW domai…
 5          4 BIRC3     9606.ENS…        9606 Homo sap… BIRC3         "Baculovi…
 6          5 FAS       9606.ENS…        9606 Homo sap… FAS           "Tumor ne…
 7          6 ARHGAP31  9606.ENS…        9606 Homo sap… ARHGAP31      "Rho GTPa…
 8          7 ARAP2     9606.ENS…        9606 Homo sap… ARAP2         "Arf-GAP …
 9          8 KITLG     9606.ENS…        9606 Homo sap… KITLG         "Kit liga…
10          9 NEDD4L    9606.ENS…        9606 Homo sap… NEDD4L        "E3 ubiqu…
# ℹ 206 more rows
…
Currently, STRING supports Gene Ontology, KEGG pathways, UniProt Keywords, PubMed publications, Pfam domains, InterPro domains, and SMART domains. (source).

enriched <- rba_string_enrichment(ids = proteins_mapped$stringId,
                                  species = 9606 )
enriched %>% names()

 [1] "COMPARTMENTS"      "Component"         "DISEASES"         
 [4] "Function"          "KEGG"              "Keyword"          
 [7] "NetworkNeighborAL" "PMID"              "Process"          
[10] "RCTM"              "TISSUES"           "WikiPathways"     

enriched[["PMID"]] %>% as_tibble()

# A tibble: 100 × 10
   category term   number_of_genes number_of_genes_in_b…¹ ncbiTaxonId inputGenes
   <chr>    <chr>            <int>                  <int>       <int> <list>    
 1 PMID     PMID:…              20                    155        9606 <chr [20]>
 2 PMID     PMID:…              14                     54        9606 <chr [14]>
 3 PMID     PMID:…              18                    121        9606 <chr [18]>
 4 PMID     PMID:…              14                     58        9606 <chr [14]>
 5 PMID     PMID:…              16                     94        9606 <chr [16]>
 6 PMID     PMID:…              19                    158        9606 <chr [19]>
 7 PMID     PMID:…              13                     48        9606 <chr [13]>
 8 PMID     PMID:…              13                     59        9606 <chr [13]>
 9 PMID     PMID:…              12                     45        9606 <chr [12]>
10 PMID     PMID:…              15                     96        9606 <chr [15]>
# ℹ 90 more rows
# ℹ abbreviated name: ¹​number_of_genes_in_background
# ℹ 4 more variables: preferredNames <list>, p_value <dbl>, fdr <dbl>,
#   description <chr>
…
