TP metabolites
…
For illustrative purposes, we set the pvalueCutoff to be 1 to show all pathway p-values.

gsea.input.gestation = all.fc %>% 
  arrange(desc(gestation)) %>% 
  na.omit() %>%
  pull(gestation,KEGG) 

gsea.gestation.kegg = GSEA(gsea.input.gestation, 
                           TERM2GENE = kegg.pathways %>% select(-name),
                           minGSSize = 3, pvalueCutoff = 1,
                           pAdjustMethod = "none")
tibble(gsea.gestation.kegg@result)

# A tibble: 27 × 11
   ID     Description setSize enrichmentScore   NES pvalue p.adjust qvalue  rank
   <chr>  <chr>         <int>           <dbl> <dbl>  <dbl>    <dbl>  <dbl> <dbl>
 1 Purin… Purine met…       7          -0.731 -1.32  0.117    0.117  0.885     9
 2 Nucle… Nucleotide…       6          -0.740 -1.29  0.148    0.148  0.885     9
 3 Cyste… Cysteine a…       5           0.652  1.25  0.256    0.256  0.885     1
 4 Tyros… Tyrosine m…       3           0.726  1.20  0.293    0.293  0.885     6
 5 Pheny… Phenylalan…       4           0.670  1.18  0.321    0.321  0.885    10
 6 Argin… Arginine b…       3          -0.732 -1.12  0.370    0.370  0.885    15
 7 Valin… Valine, le…       3           0.683  1.13  0.372    0.372  0.885    16
 8 Valin… Valine, le…       3           0.683  1.13  0.372    0.372  0.885    16
 9 Sulfu… Sulfur met…       4           0.632  1.11  0.377    0.377  0.885     6
10 2-Oxo… 2-Oxocarbo…       8           0.467  1.04  0.407    0.407  0.885    11
# ℹ 17 more rows
# ℹ 2 more variables: leading_edge <chr>, core_enrichment <chr>
…
Using fold changes

gsea.input.geno = all.fc %>%
  mutate(geno.mother = geno.mother) %>% 
  arrange(desc(geno.mother))%>% na.omit() %>%
  pull(geno.mother,KEGG) 

gsea.geno.kegg = GSEA(gsea.input.geno, 
                      TERM2GENE = kegg.pathways %>% select(-name),
                      minGSSize = 3, 
                      pvalueCutoff = 1, 
                      pAdjustMethod = "none")
tibble(gsea.geno.kegg@result)

# A tibble: 27 × 11
   ID     Description setSize enrichmentScore   NES pvalue p.adjust qvalue  rank
   <chr>  <chr>         <int>           <dbl> <dbl>  <dbl>    <dbl>  <dbl> <dbl>
 1 Biosy… Biosynthes…      14          -0.718 -1.65 0.0119   0.0119  0.321    12
 2 Thiam… Thiamine m…       3          -0.902 -1.43 0.0513   0.0513  0.520     8
 3 Cyste… Cysteine a…       5          -0.808 -1.45 0.0604   0.0604  0.520     3
 4 Gluta… Glutathion…       5          -0.783 -1.41 0.0771   0.0771  0.520    12
 5 Carbo… Carbon met…       9          -0.587 -1.22 0.218    0.218   0.964    13
 6 Glyce… Glyceropho…       5           0.688  1.20 0.294    0.294   0.964    15
 7 Oxida… Oxidative …       3          -0.749 -1.19 0.310    0.310   0.964     8
 8 Nucle… Nucleotide…       6           0.610  1.11 0.403    0.403   0.964     4
 9 Purin… Purine met…       7           0.571  1.08 0.423    0.423   0.964     4
10 Argin… Arginine b…       3           0.671  1.08 0.434    0.434   0.964     3
# ℹ 17 more rows
# ℹ 2 more variables: leading_edge <chr>, core_enrichment <chr>
…
